{
  "staging": {
    "awsBucket": "fortumo-web-styles-staging",
    "roleArn": "arn:aws:iam::657341084763:role/buildsystem/teamcity/deploy/WebStylesS3AccessRole-DeployAccessRole-OAYO3CCZXLVS",
    "awsRegion": "eu-west-1",
    "awsDistributionId": ""
  },
  "invalidation": "{Quantity=2,Items=[/*,/]}"
}
